{
    "vechile" : [
        {"id":1,"name":"Ram Van 1500","type":"Dodge"},
        {"id":2,"name":"9000","type":"Saab"},
        {"id":3,"name":"Jetta","type":"Volkswagen"},
        {"id":4,"name":"Mustang","type":"Ford"},
        {"id":5,"name":"Ram Van 1500","type":"Dodge"},
        {"id":6,"name":"Bronco II","type":"Ford"},
        {"id":7,"name":"7 Series","type":"BMW"},
        {"id":8,"name":"Outlander","type":"Mitsubishi"},
        {"id":9,"name":"Dakota Club","type":"Dodge"},
        {"id":10,"name":"Starion","type":"Mitsubishi"},
        {"id":11,"name":"LeMans","type":"Pontiac"},
        {"id":12,"name":"Talon","type":"Eagle"},
        {"id":13,"name":"E-Series","type":"Ford"},
        {"id":14,"name":"Civic Si","type":"Honda"},
        {"id":15,"name":"Th!nk","type":"Ford"},
        {"id":16,"name":"Citation","type":"Chevrolet"},
        {"id":17,"name":"I","type":"Infiniti"},
        {"id":18,"name":"del Sol","type":"Honda"},
        {"id":19,"name":"Navigator L","type":"Lincoln"},
        {"id":20,"name":"Titan","type":"Nissan"},
        {"id":21,"name":"Seville","type":"Cadillac"},
        {"id":22,"name":"Topaz","type":"Mercury"},
        {"id":23,"name":"S-Class","type":"Mercedes-Benz"},
        {"id":24,"name":"Cayenne","type":"Porsche"},
        {"id":25,"name":"Taurus","type":"Ford"},
        {"id":26,"name":"Land Cruiser","type":"Toyota"},
        {"id":27,"name":"Savana 1500","type":"GMC"},
        {"id":28,"name":"Yukon Denali","type":"GMC"},
        {"id":29,"name":"RL","type":"Acura"},
        {"id":30,"name":"Mighty Max Macro","type":"Mitsubishi"}
    ]
}
